{
"INQ_NEXT_CARD_NO":"11",
"INQ_ITRN_SUB_ROWCOUNT":"10",
"INQ_NEXT_APV_NO":"79509676",
"INQ_NEXT_APV_TM":"122900",
"INQ_NEXT_APV_DT":"20170929",
"NOTI_CNT":"0",
"INQ_ITRN_SUB":[
{
"ETC_RCPT_IMG_URL":"",
"APV_AMT":"6200.00",
"CARD_NO":"5330148130021410",
"APPR_SEQ_NO":null,
"APV_CAN_YN":"A",
"RCPT_TX_STS":"0",
"APV_SEQ":"1",
"MEST_BIZ_NO":"3762200364",
"CURR_CD":"",
"MEST_NO":"",
"CARD_NICK_NM":"",
"CARD_CORP_CD":"30000012",
"ITLM_MMS_CNT":"0",
"SETL_SCHE_DT":null,
"TRAN_KIND_CD":"",
"MEST_NM":"카페 드 비반트",
"PPP_APPR_STS":"0",
"APV_CAN_DT":"",
"APV_NO":"74961082",
"DAY_NM":"수",
"RCPT_RFS_STS":"N",
"CARD_ORG_NM":"광주카드",
"APV_TM":"093700",
"APV_DT":"20171011",
"INQ_GRP":"0000",
"ETC_IMG_YN":"",
"ETC_REG_YN":"",
"OVRS_TX_AMT":null,
"TX_GB":"1",
"TRAN_KIND_NM":""
},
{
"ETC_RCPT_IMG_URL":"",
"APV_AMT":"95000.00",
"CARD_NO":"9407019900022542",
"APPR_SEQ_NO":null,
"APV_CAN_YN":"A",
"RCPT_TX_STS":"0",
"APV_SEQ":"1",
"MEST_BIZ_NO":"4032800407",
"CURR_CD":"",
"MEST_NO":"705313092",
"CARD_NICK_NM":"",
"CARD_CORP_CD":"30000013",
"ITLM_MMS_CNT":"0",
"SETL_SCHE_DT":null,
"TRAN_KIND_CD":"",
"MEST_NM":"더족발당산점",
"PPP_APPR_STS":"0",
"APV_CAN_DT":"",
"APV_NO":"72340099",
"DAY_NM":"화",
"RCPT_RFS_STS":"N",
"CARD_ORG_NM":"수협카드",
"APV_TM":"192616",
"APV_DT":"20171010",
"INQ_GRP":"0000",
"ETC_IMG_YN":"",
"ETC_REG_YN":"",
"OVRS_TX_AMT":null,
"TX_GB":"1",
"TRAN_KIND_NM":""
},
{
"ETC_RCPT_IMG_URL":"",
"APV_AMT":"10600.00",
"CARD_NO":"5330148130021410",
"APPR_SEQ_NO":null,
"APV_CAN_YN":"A",
"RCPT_TX_STS":"0",
"APV_SEQ":"4",
"MEST_BIZ_NO":"1048183559",
"CURR_CD":"",
"MEST_NO":"",
"CARD_NICK_NM":"",
"CARD_CORP_CD":"30000012",
"ITLM_MMS_CNT":"0",
"SETL_SCHE_DT":null,
"TRAN_KIND_CD":"",
"MEST_NM":"티머니택시(개인)",
"PPP_APPR_STS":"0",
"APV_CAN_DT":"",
"APV_NO":"62795689",
"DAY_NM":"화",
"RCPT_RFS_STS":"N",
"CARD_ORG_NM":"광주카드",
"APV_TM":"170700",
"APV_DT":"20171010",
"INQ_GRP":"0000",
"ETC_IMG_YN":"",
"ETC_REG_YN":"",
"OVRS_TX_AMT":null,
"TX_GB":"1",
"TRAN_KIND_NM":""
},
{
"ETC_RCPT_IMG_URL":"",
"APV_AMT":"10500.00",
"CARD_NO":"5330148130021410",
"APPR_SEQ_NO":null,
"APV_CAN_YN":"A",
"RCPT_TX_STS":"0",
"APV_SEQ":"3",
"MEST_BIZ_NO":"1048183559",
"CURR_CD":"",
"MEST_NO":"",
"CARD_NICK_NM":"",
"CARD_CORP_CD":"30000012",
"ITLM_MMS_CNT":"0",
"SETL_SCHE_DT":null,
"TRAN_KIND_CD":"",
"MEST_NM":"티머니택시(법인)",
"PPP_APPR_STS":"0",
"APV_CAN_DT":"",
"APV_NO":"61021861",
"DAY_NM":"화",
"RCPT_RFS_STS":"N",
"CARD_ORG_NM":"광주카드",
"APV_TM":"135400",
"APV_DT":"20171010",
"INQ_GRP":"0000",
"ETC_IMG_YN":"",
"ETC_REG_YN":"",
"OVRS_TX_AMT":null,
"TX_GB":"1",
"TRAN_KIND_NM":""
},
{
"ETC_RCPT_IMG_URL":"",
"APV_AMT":"21000.00",
"CARD_NO":"9407019900022542",
"APPR_SEQ_NO":null,
"APV_CAN_YN":"A",
"RCPT_TX_STS":"0",
"APV_SEQ":"2",
"MEST_BIZ_NO":"1071486330",
"CURR_CD":"",
"MEST_NO":"759838669",
"CARD_NICK_NM":"",
"CARD_CORP_CD":"30000013",
"ITLM_MMS_CNT":"0",
"SETL_SCHE_DT":null,
"TRAN_KIND_CD":"",
"MEST_NM":"장군주먹고기",
"PPP_APPR_STS":"0",
"APV_CAN_DT":"",
"APV_NO":"78064127",
"DAY_NM":"화",
"RCPT_RFS_STS":"N",
"CARD_ORG_NM":"수협카드",
"APV_TM":"125026",
"APV_DT":"20171010",
"INQ_GRP":"0000",
"ETC_IMG_YN":"",
"ETC_REG_YN":"",
"OVRS_TX_AMT":null,
"TX_GB":"1",
"TRAN_KIND_NM":""
},
{
"ETC_RCPT_IMG_URL":"",
"APV_AMT":"13000.00",
"CARD_NO":"5330148130021410",
"APPR_SEQ_NO":null,
"APV_CAN_YN":"A",
"RCPT_TX_STS":"0",
"APV_SEQ":"2",
"MEST_BIZ_NO":"8194600154",
"CURR_CD":"",
"MEST_NO":"",
"CARD_NICK_NM":"",
"CARD_CORP_CD":"30000012",
"ITLM_MMS_CNT":"0",
"SETL_SCHE_DT":null,
"TRAN_KIND_CD":"",
"MEST_NM":"홍차오",
"PPP_APPR_STS":"0",
"APV_CAN_DT":"",
"APV_NO":"77577772",
"DAY_NM":"화",
"RCPT_RFS_STS":"N",
"CARD_ORG_NM":"광주카드",
"APV_TM":"122000",
"APV_DT":"20171010",
"INQ_GRP":"0000",
"ETC_IMG_YN":"",
"ETC_REG_YN":"",
"OVRS_TX_AMT":null,
"TX_GB":"1",
"TRAN_KIND_NM":""
},
{
"ETC_RCPT_IMG_URL":"",
"APV_AMT":"2700.00",
"CARD_NO":"5330148130021410",
"APPR_SEQ_NO":null,
"APV_CAN_YN":"A",
"RCPT_TX_STS":"0",
"APV_SEQ":"1",
"MEST_BIZ_NO":"3762200364",
"CURR_CD":"",
"MEST_NO":"",
"CARD_NICK_NM":"",
"CARD_CORP_CD":"30000012",
"ITLM_MMS_CNT":"0",
"SETL_SCHE_DT":null,
"TRAN_KIND_CD":"",
"MEST_NM":"카페 드 비반트",
"PPP_APPR_STS":"0",
"APV_CAN_DT":"",
"APV_NO":"76399546",
"DAY_NM":"화",
"RCPT_RFS_STS":"N",
"CARD_ORG_NM":"광주카드",
"APV_TM":"100700",
"APV_DT":"20171010",
"INQ_GRP":"0000",
"ETC_IMG_YN":"",
"ETC_REG_YN":"",
"OVRS_TX_AMT":null,
"TX_GB":"1",
"TRAN_KIND_NM":""
},
{
"ETC_RCPT_IMG_URL":"https:\/\/platform.bizplay.co.kr\/wecloud\/20171003_cbdc7220-0217-4832-b0eb-1df0109e7021.jpg",
"APV_AMT":"0.00",
"CARD_NO":"9000000000000000",
"APPR_SEQ_NO":null,
"APV_CAN_YN":"",
"RCPT_TX_STS":"0",
"APV_SEQ":"17",
"MEST_BIZ_NO":"",
"CURR_CD":"",
"MEST_NO":"",
"CARD_NICK_NM":"",
"CARD_CORP_CD":"80000001",
"ITLM_MMS_CNT":"",
"SETL_SCHE_DT":"",
"TRAN_KIND_CD":"",
"MEST_NM":null,
"PPP_APPR_STS":"0",
"APV_CAN_DT":"",
"APV_NO":"17",
"DAY_NM":"화",
"RCPT_RFS_STS":"N",
"CARD_ORG_NM":"기타영수증",
"APV_TM":"104741",
"APV_DT":"20171003",
"INQ_GRP":"1710",
"ETC_IMG_YN":"Y",
"ETC_REG_YN":"N",
"OVRS_TX_AMT":"0.00",
"TX_GB":"8",
"TRAN_KIND_NM":""
},
{
"ETC_RCPT_IMG_URL":"",
"APV_AMT":"48000.00",
"CARD_NO":"5330148130021410",
"APPR_SEQ_NO":null,
"APV_CAN_YN":"A",
"RCPT_TX_STS":"0",
"APV_SEQ":"4",
"MEST_BIZ_NO":"1011083259",
"CURR_CD":"",
"MEST_NO":"",
"CARD_NICK_NM":"",
"CARD_CORP_CD":"30000012",
"ITLM_MMS_CNT":"0",
"SETL_SCHE_DT":null,
"TRAN_KIND_CD":"",
"MEST_NM":"유가네닭갈비",
"PPP_APPR_STS":"0",
"APV_CAN_DT":"",
"APV_NO":"74629710",
"DAY_NM":"금",
"RCPT_RFS_STS":"N",
"CARD_ORG_NM":"광주카드",
"APV_TM":"192200",
"APV_DT":"20170929",
"INQ_GRP":"1709",
"ETC_IMG_YN":"",
"ETC_REG_YN":"",
"OVRS_TX_AMT":null,
"TX_GB":"1",
"TRAN_KIND_NM":""
},
{
"ETC_RCPT_IMG_URL":"",
"APV_AMT":"14600.00",
"CARD_NO":"9407019900022542",
"APPR_SEQ_NO":null,
"APV_CAN_YN":"A",
"RCPT_TX_STS":"0",
"APV_SEQ":"1",
"MEST_BIZ_NO":"2980900158",
"CURR_CD":"",
"MEST_NO":"794928377",
"CARD_NICK_NM":"",
"CARD_CORP_CD":"30000013",
"ITLM_MMS_CNT":"0",
"SETL_SCHE_DT":null,
"TRAN_KIND_CD":"",
"MEST_NM":"카페비플러스",
"PPP_APPR_STS":"0",
"APV_CAN_DT":"",
"APV_NO":"79822718",
"DAY_NM":"금",
"RCPT_RFS_STS":"N",
"CARD_ORG_NM":"수협카드",
"APV_TM":"124646",
"APV_DT":"20170929",
"INQ_GRP":"1709",
"ETC_IMG_YN":"",
"ETC_REG_YN":"",
"OVRS_TX_AMT":null,
"TX_GB":"1",
"TRAN_KIND_NM":""
}
],
"TRAN_CNT":"0",
"INQ_NEXT_APV_SEQ":"3"
}